Biostat 212a Homework 4
…
Main Arguments:
  mtry = tune()
  trees = tune()

Computational engine: ranger 

rf_grid <- grid_regular(
  trees(range = c(100L, 1500L)),
  mtry(range = c(1L, 4L)),
  levels = c(15,4)
  )
rf_grid

# A tibble: 60 × 2
   trees  mtry
   <int> <int>
 1   100     1
 2   200     1
 3   300     1
 4   400     1
 5   500     1
 6   600     1
 7   700     1
 8   800     1
 9   900     1
10  1000     1
# ℹ 50 more rows
…
rf_fit %>%
  collect_metrics() %>%
  print(width = Inf) %>%
  filter(.metric == "rmse") %>%
  mutate(mtry = as.factor(mtry)) %>%
  ggplot(mapping = aes(x = trees, y = mean, color = mtry)) +
  # geom_point() + 
  geom_line() + 
  labs(x = "Num. of Trees", y = "CV mse")

# A tibble: 120 × 8
    mtry trees .metric .estimator  mean     n std_err .config              
   <int> <int> <chr>   <chr>      <dbl> <int>   <dbl> <chr>                
 1     1   100 rmse    standard   4.98      5  0.313  Preprocessor1_Model01
 2     1   100 rsq     standard   0.727     5  0.0534 Preprocessor1_Model01
 3     1   200 rmse    standard   4.96      5  0.262  Preprocessor1_Model02
 4     1   200 rsq     standard   0.740     5  0.0462 Preprocessor1_Model02
 5     1   300 rmse    standard   5.07      5  0.308  Preprocessor1_Model03
 6     1   300 rsq     standard   0.723     5  0.0488 Preprocessor1_Model03
 7     1   400 rmse    standard   4.98      5  0.321  Preprocessor1_Model04
 8     1   400 rsq     standard   0.734     5  0.0455 Preprocessor1_Model04
 9     1   500 rmse    standard   5.00      5  0.300  Preprocessor1_Model05
10     1   500 rsq     standard   0.731     5  0.0487 Preprocessor1_Model05
# ℹ 110 more rows
…
Main Arguments:
  trees = 1000
  tree_depth = tune()
  learn_rate = tune()

Computational engine: xgboost 

param_grid <- grid_regular(
  tree_depth(range = c(1L, 4L)),
  learn_rate(range = c(-10, -0.5), trans = log10_trans()),
  levels = c(4, 10)
  )
param_grid

# A tibble: 40 × 2
   tree_depth    learn_rate
        <int>         <dbl>
 1          1 0.0000000001 
 2          2 0.0000000001 
 3          3 0.0000000001 
 4          4 0.0000000001 
 5          1 0.00000000114
 6          2 0.00000000114
 7          3 0.00000000114
 8          4 0.00000000114
 9          1 0.0000000129 
10          2 0.0000000129 
# ℹ 30 more rows
…
  - Warning(s) x1: A correlation computation is required, but `estimate` is constant...

Run `show_notes(.Last.tune.result)` for more information.

gb_fit %>%
  collect_metrics() %>%
  print(width = Inf) %>%
  filter(.metric == "rmse") %>%
  ggplot(mapping = aes(x = learn_rate, y = mean, color = factor(tree_depth))) +
  geom_point() +
  geom_line() +
  labs(x = "Learning Rate", y = "CV AUC") +
  scale_x_log10()

# A tibble: 80 × 8
   tree_depth    learn_rate .metric .estimator    mean     n std_err
        <int>         <dbl> <chr>   <chr>        <dbl> <int>   <dbl>
 1          1 0.0000000001  rmse    standard    22.9       1      NA
 2          1 0.0000000001  rsq     standard   NaN         0      NA
 3          2 0.0000000001  rmse    standard    22.9       1      NA
 4          2 0.0000000001  rsq     standard   NaN         0      NA
 5          3 0.0000000001  rmse    standard    22.9       1      NA
 6          3 0.0000000001  rsq     standard   NaN         0      NA
 7          4 0.0000000001  rmse    standard    22.9       1      NA
 8          4 0.0000000001  rsq     standard   NaN         0      NA
 9          1 0.00000000114 rmse    standard    22.9       1      NA
10          1 0.00000000114 rsq     standard     0.386     1      NA
   .config              
   <chr>                
 1 Preprocessor1_Model01
 2 Preprocessor1_Model01
 3 Preprocessor1_Model02
 4 Preprocessor1_Model02
 5 Preprocessor1_Model03
 6 Preprocessor1_Model03
 7 Preprocessor1_Model04
 8 Preprocessor1_Model04
 9 Preprocessor1_Model05
10 Preprocessor1_Model05
# ℹ 70 more rows
…
Main Arguments:
  mtry = tune()
  trees = tune()

Computational engine: ranger 

param_grid <- grid_regular(
  trees(range = c(1L, 1000L)), 
  mtry(range = c(1L, 6L)),
  levels = c(9, 6)
  )
param_grid

# A tibble: 54 × 2
   trees  mtry
   <int> <int>
 1     1     1
 2   125     1
 3   250     1
 4   375     1
 5   500     1
 6   625     1
 7   750     1
 8   875     1
 9  1000     1
10     1     2
# ℹ 44 more rows
…
rf_fit %>%
  collect_metrics() %>%
  print(width = Inf) %>%
  filter(.metric == "roc_auc") %>%
  mutate(mtry = as.factor(mtry)) %>%
  ggplot(mapping = aes(x = trees, y = mean, color = mtry)) +
  # geom_point() + 
  geom_line() + 
  labs(x = "Num. of Trees", y = "CV AUC")

# A tibble: 108 × 8
    mtry trees .metric  .estimator  mean     n std_err .config              
   <int> <int> <chr>    <chr>      <dbl> <int>   <dbl> <chr>                
 1     1     1 accuracy binary     0.55      5 0.0387  Preprocessor1_Model01
 2     1     1 roc_auc  binary     0.578     5 0.0367  Preprocessor1_Model01
 3     1   125 accuracy binary     0.75      5 0.0175  Preprocessor1_Model02
 4     1   125 roc_auc  binary     0.846     5 0.00895 Preprocessor1_Model02
 5     1   250 accuracy binary     0.767     5 0.0183  Preprocessor1_Model03
 6     1   250 roc_auc  binary     0.837     5 0.00981 Preprocessor1_Model03
 7     1   375 accuracy binary     0.757     5 0.0113  Preprocessor1_Model04
 8     1   375 roc_auc  binary     0.846     5 0.00773 Preprocessor1_Model04
 9     1   500 accuracy binary     0.757     5 0.0155  Preprocessor1_Model05
10     1   500 roc_auc  binary     0.854     5 0.00837 Preprocessor1_Model05
# ℹ 98 more rows
…
Main Arguments:
  trees = 1000
  tree_depth = tune()
  learn_rate = tune()

Computational engine: xgboost 

param_grid <- grid_regular(
  tree_depth(range = c(1L, 5L)),
  learn_rate(range = c(-3, 4), trans = log10_trans()),
  levels = c(5, 7)
  )
param_grid

# A tibble: 35 × 2
   tree_depth learn_rate
        <int>      <dbl>
 1          1     0.001 
 2          2     0.001 
 3          3     0.001 
 4          4     0.001 
 5          5     0.001 
 6          1     0.0147
 7          2     0.0147
 8          3     0.0147
 9          4     0.0147
10          5     0.0147
# ℹ 25 more rows
…
gb_fit %>%
  collect_metrics() %>%
  print(width = Inf) %>%
  filter(.metric == "roc_auc") %>%
  mutate(tree_depth = as.factor(tree_depth)) %>%
  ggplot(mapping = aes(x = learn_rate, y = mean, color = tree_depth)) +
  geom_point() +
  geom_line() +
  labs(x = "Learning Rate", y = "CV AUC") +
  scale_x_log10()

# A tibble: 70 × 8
   tree_depth learn_rate .metric  .estimator  mean     n std_err
        <int>      <dbl> <chr>    <chr>      <dbl> <int>   <dbl>
 1          1      0.001 accuracy binary     0.71      5  0.0227
 2          1      0.001 roc_auc  binary     0.781     5  0.0304
 3          2      0.001 accuracy binary     0.75      5  0.0346
 4          2      0.001 roc_auc  binary     0.811     5  0.0381
 5          3      0.001 accuracy binary     0.777     5  0.0360
 6          3      0.001 roc_auc  binary     0.844     5  0.0386
 7          4      0.001 accuracy binary     0.773     5  0.0310
 8          4      0.001 roc_auc  binary     0.856     5  0.0278
 9          5      0.001 accuracy binary     0.78      5  0.0406
10          5      0.001 roc_auc  binary     0.859     5  0.0241
   .config              
   <chr>                
 1 Preprocessor1_Model01
 2 Preprocessor1_Model01
 3 Preprocessor1_Model02
 4 Preprocessor1_Model02
 5 Preprocessor1_Model03
 6 Preprocessor1_Model03
 7 Preprocessor1_Model04
 8 Preprocessor1_Model04
 9 Preprocessor1_Model05
10 Preprocessor1_Model05
# ℹ 60 more rows
…
