Biostat 212a Homework 6
…
Log trading volume (\(v_t\)): This is the fraction of all outstanding shares that are traded on that day, relative to a 100-day moving average of past turnover, on the log scale.

Dow Jones return (\(r_t\)): This is the difference between the log of the Dow Jones Industrial Index on consecutive trading days.

Log volatility (\(z_t\)): This is based on the absolute values of daily price movements.

# Read in NYSE data from url

url = "https://raw.githubusercontent.com/ucla-biostat-212a/2024winter/master/slides/data/NYSE.csv"
NYSE <- read_csv(url)

NYSE

# A tibble: 6,051 × 6
   date       day_of_week DJ_return log_volume log_volatility train
   <date>     <chr>           <dbl>      <dbl>          <dbl> <lgl>
 1 1962-12-03 mon         -0.00446     0.0326           -13.1 TRUE 
 2 1962-12-04 tues         0.00781     0.346            -11.7 TRUE 
 3 1962-12-05 wed          0.00384     0.525            -11.7 TRUE 
 4 1962-12-06 thur        -0.00346     0.210            -11.6 TRUE 
 5 1962-12-07 fri          0.000568    0.0442           -11.7 TRUE 
 6 1962-12-10 mon         -0.0108      0.133            -10.9 TRUE 
 7 1962-12-11 tues         0.000124   -0.0115           -11.0 TRUE 
 8 1962-12-12 wed          0.00336     0.00161          -11.0 TRUE 
 9 1962-12-13 thur        -0.00330    -0.106            -11.0 TRUE 
10 1962-12-14 fri          0.00447    -0.138            -11.0 TRUE 
# ℹ 6,041 more rows
…
rf_fit

# Tuning results
# Sliding period resampling 
# A tibble: 200 × 4
   splits           id       .metrics         .notes          
   <list>           <chr>    <list>           <list>          
 1 <split [98/22]>  Slice001 <tibble [8 × 6]> <tibble [0 × 3]>
 2 <split [120/20]> Slice002 <tibble [8 × 6]> <tibble [0 × 3]>
 3 <split [140/22]> Slice003 <tibble [8 × 6]> <tibble [0 × 3]>
 4 <split [162/22]> Slice004 <tibble [8 × 6]> <tibble [0 × 3]>
 5 <split [184/20]> Slice005 <tibble [8 × 6]> <tibble [0 × 3]>
 6 <split [204/23]> Slice006 <tibble [8 × 6]> <tibble [0 × 3]>
 7 <split [227/18]> Slice007 <tibble [8 × 6]> <tibble [0 × 3]>
 8 <split [245/21]> Slice008 <tibble [8 × 6]> <tibble [0 × 3]>
 9 <split [266/22]> Slice009 <tibble [8 × 6]> <tibble [0 × 3]>
10 <split [288/19]> Slice010 <tibble [8 × 6]> <tibble [0 × 3]>
# ℹ 190 more rows
…
gb_fit

# Tuning results
# Sliding period resampling 
# A tibble: 200 × 4
   splits           id       .metrics          .notes          
   <list>           <chr>    <list>            <list>          
 1 <split [98/22]>  Slice001 <tibble [24 × 6]> <tibble [1 × 3]>
 2 <split [120/20]> Slice002 <tibble [24 × 6]> <tibble [1 × 3]>
 3 <split [140/22]> Slice003 <tibble [24 × 6]> <tibble [1 × 3]>
 4 <split [162/22]> Slice004 <tibble [24 × 6]> <tibble [1 × 3]>
 5 <split [184/20]> Slice005 <tibble [24 × 6]> <tibble [1 × 3]>
 6 <split [204/23]> Slice006 <tibble [24 × 6]> <tibble [1 × 3]>
 7 <split [227/18]> Slice007 <tibble [24 × 6]> <tibble [1 × 3]>
 8 <split [245/21]> Slice008 <tibble [24 × 6]> <tibble [1 × 3]>
 9 <split [266/22]> Slice009 <tibble [24 × 6]> <tibble [1 × 3]>
10 <split [288/19]> Slice010 <tibble [24 × 6]> <tibble [1 × 3]>
# ℹ 190 more rows
…
hc_preds <- hc_fit %>% predict(as.data.frame(t(gene_exp)))

hc_preds

# A tibble: 40 × 1
   .pred_cluster
   <fct>        
 1 Cluster_1    
 2 Cluster_1    
 3 Cluster_1    
 4 Cluster_1    
 5 Cluster_1    
 6 Cluster_1    
 7 Cluster_1    
 8 Cluster_1    
 9 Cluster_1    
10 Cluster_1    
# ℹ 30 more rows

bind_cols(
  hc_preds,
  extract_cluster_assignment(hc_fit)
)

# A tibble: 40 × 2
   .pred_cluster .cluster 
   <fct>         <fct>    
 1 Cluster_1     Cluster_1
 2 Cluster_1     Cluster_1
 3 Cluster_1     Cluster_1
 4 Cluster_1     Cluster_1
 5 Cluster_1     Cluster_1
 6 Cluster_1     Cluster_1
 7 Cluster_1     Cluster_1
 8 Cluster_1     Cluster_1
 9 Cluster_1     Cluster_1
10 Cluster_1     Cluster_1
# ℹ 30 more rows
…
hc_preds <- hc_fit %>% predict(as.data.frame(t(gene_exp)))

hc_preds

# A tibble: 40 × 1
   .pred_cluster
   <fct>        
 1 Cluster_1    
 2 Cluster_1    
 3 Cluster_1    
 4 Cluster_1    
 5 Cluster_1    
 6 Cluster_1    
 7 Cluster_1    
 8 Cluster_1    
 9 Cluster_1    
10 Cluster_1    
# ℹ 30 more rows

bind_cols(
  hc_preds,
  extract_cluster_assignment(hc_fit)
)

# A tibble: 40 × 2
   .pred_cluster .cluster 
   <fct>         <fct>    
 1 Cluster_1     Cluster_1
 2 Cluster_1     Cluster_1
 3 Cluster_1     Cluster_1
 4 Cluster_1     Cluster_1
 5 Cluster_1     Cluster_1
 6 Cluster_1     Cluster_1
 7 Cluster_1     Cluster_1
 8 Cluster_1     Cluster_1
 9 Cluster_1     Cluster_1
10 Cluster_1     Cluster_1
# ℹ 30 more rows
…
hc_preds <- hc_fit %>% predict(as.data.frame(t(gene_exp)))

hc_preds

# A tibble: 40 × 1
   .pred_cluster
   <fct>        
 1 Cluster_1    
 2 Cluster_1    
 3 Cluster_1    
 4 Cluster_1    
 5 Cluster_1    
 6 Cluster_1    
 7 Cluster_1    
 8 Cluster_1    
 9 Cluster_1    
10 Cluster_1    
# ℹ 30 more rows

bind_cols(
  hc_preds,
  extract_cluster_assignment(hc_fit)
)

# A tibble: 40 × 2
   .pred_cluster .cluster 
   <fct>         <fct>    
 1 Cluster_1     Cluster_1
 2 Cluster_1     Cluster_1
 3 Cluster_1     Cluster_1
 4 Cluster_1     Cluster_1
 5 Cluster_1     Cluster_1
 6 Cluster_1     Cluster_1
 7 Cluster_1     Cluster_1
 8 Cluster_1     Cluster_1
 9 Cluster_1     Cluster_1
10 Cluster_1     Cluster_1
# ℹ 30 more rows
…
